<?xml version="1.0" encoding="UTF-8"?>
<svg width="63px" height="50px" viewBox="0 0 63 50" version="1.1" xmlns="http://www.w3.org/2000/svg" xmlns:xlink="http://www.w3.org/1999/xlink">
    <!-- Generator: Sketch 50.2 (55047) - http://www.bohemiancoding.com/sketch -->
    <title>contact</title>
    <desc>Created with Sketch.</desc>
    <defs></defs>
    <g id="Page-1" stroke="none" stroke-width="1" fill="none" fill-rule="evenodd">
        <g id="contact" fill-rule="nonzero">
            <path d="M60,24.9542373 C60,26.4186441 58.8101695,27.7 57.2542373,27.7 L52.959322,27.7 L52.959322,14.520339 C52.959322,13.5135593 52.5932203,12.5983051 51.8610169,11.9576271 C51.220339,11.3169492 50.3050847,10.859322 49.2983051,10.859322 L14.6,10.859322 L14.6,5.92372881 C14.6,4.45932203 15.7898305,3.1779661 17.3457627,3.1779661 L57.2542373,3.1779661 C58.7186441,3.1779661 60,4.36779661 60,5.92372881 L60,24.9542373 Z" id="Path" fill="#FFDFE4" opacity="0.635825893"></path>
            <path d="M58,0 L16.6,0 C13.9,0 11.6,2.2 11.6,5 L11.6,9.4 L5,9.4 C2.8,9.4 1,11.2 1,13.4 L1,37.2 C1,39.4 2.8,41.2 5,41.2 L9.7,41.2 L9.7,47.2 C9.9,48.1 10.7,48.4 11.3,48 L20.6,41 L50.4,41 C52.6,41 54.4,39.2 54.4,37 L54.4,29.6 L58,29.6 C60.7,29.6 63,27.4 63,24.6 L63,5 C62.9,2.2 60.7,0 58,0 Z M52.4,37.1 C52.4,38.2 51.5,39.1 50.4,39.1 L20.2,39.1 C20,39.1 19.7,39.2 19.6,39.3 L11.7,45.9 L11.7,40 C11.7,39.5 11.3,39 10.7,39 L5,39 C3.9,39 3,38.1 3,37 L3,13.3 C3,12.2 3.9,11.3 5,11.3 L12.6,11.3 C12.6,11.3 25.2,11.3 50.4,11.3 C51.6,11.4 52.2,12 52.4,13.3 L52.4,37.1 Z M61,24.7 C61,26.3 59.7,27.7 58,27.7 L54.4,27.7 L54.4,13.3 C54.4,12.2 54,11.2 53.2,10.5 C52.5,9.8 51.5,9.3 50.4,9.3 L13.6,9.3 L13.6,5 C13.6,3.4 14.9,2 16.6,2 L58,2 C59.6,2 61,3.3 61,5 L61,24.7 Z" id="Shape" fill="#FF3C58"></path>
            <path d="M44.2,17.9 L12.2,17.9 C11.7,17.9 11.2,18.3 11.2,18.9 C11.2,19.4 11.6,19.9 12.2,19.9 L44.3,19.9 C44.8,19.9 45.3,19.5 45.3,18.9 C45.2,18.3 44.8,17.9 44.2,17.9 Z" id="Shape" fill="#FFB4BD"></path>
            <path d="M44.2,23.2 L12.2,23.2 C11.7,23.2 11.2,23.6 11.2,24.2 C11.2,24.7 11.6,25.2 12.2,25.2 L44.3,25.2 C44.8,25.2 45.3,24.8 45.3,24.2 C45.2,23.6 44.8,23.2 44.2,23.2 Z" id="Shape" fill="#FFB4BD"></path>
            <path d="M30.1,28.5 L26.8,28.5 C26.3,28.5 25.8,28.9 25.8,29.5 C25.8,30 26.2,30.5 26.8,30.5 L30.1,30.5 C30.6,30.5 31.1,30.1 31.1,29.5 C31.1,28.9 30.7,28.5 30.1,28.5 Z" id="Shape" fill="#FFB4BD"></path>
            <path d="M22.6,28.5 L12.2,28.5 C11.7,28.5 11.2,28.9 11.2,29.5 C11.2,30 11.6,30.5 12.2,30.5 L22.6,30.5 C23.1,30.5 23.6,30.1 23.6,29.5 C23.6,28.9 23.1,28.5 22.6,28.5 Z" id="Shape" fill="#FFB4BD"></path>
            <path d="M4.08869009,41.7447459 C2.15569346,41.7447459 0.588690086,40.1777425 0.588690086,38.2447459 L0.588690086,12.5612722 C0.595441949,10.6161003 2.16789209,9.05456273 4.100877,9.06129338 L51.2409161,9.19757882 C53.1691434,9.2042929 54.7287292,10.7693186 54.7287292,12.6975576 L54.7287292,38.2447459 C54.7287292,40.1777425 53.1617258,41.7447459 51.2287292,41.7447459 L21.5617631,41.7447459 C21.4402485,41.7447459 21.3228925,41.7889974 21.2316311,41.8692291 L13.4309481,48.6062651 C12.9746407,49.0074234 12.3878608,49.2286811 11.7802882,49.2286811 C10.3995763,49.2286811 9.28028818,48.109393 9.28028818,46.7286811 L9.28028818,41.7447459 L4.08869009,41.7447459 Z M12.2802882,45.6233617 L19.2508391,39.6161283 C19.8896695,39.0545067 20.7111614,38.7447459 21.5617631,38.7447459 L51.2287292,38.7447459 C51.5048715,38.7447459 51.7287292,38.5208883 51.7287292,38.2447459 L51.7287292,12.6975576 C51.7287292,12.4220949 51.5059312,12.1985198 51.2304701,12.1975606 L4.09043107,12.0612752 C3.81429037,12.0603137 3.58965464,12.2833905 3.58869312,12.5595312 L3.58869009,38.2447459 C3.58869009,38.5208883 3.81254771,38.7447459 4.08869009,38.7447459 L9.78028818,38.7447459 C11.1610001,38.7447459 12.2802882,39.864034 12.2802882,41.2447459 L12.2802882,45.6233617 Z" id="Path-2" fill="#FF3C58"></path>
        </g>
    </g>
</svg>