<?xml version="1.0" encoding="UTF-8"?>
<svg width="81px" height="25px" viewBox="0 0 81 25" version="1.1" xmlns="http://www.w3.org/2000/svg" xmlns:xlink="http://www.w3.org/1999/xlink">
    <!-- Generator: Sketch 49 (51002) - http://www.bohemiancoding.com/sketch -->
    <title>Group</title>
    <desc>Created with Sketch.</desc>
    <defs></defs>
    <g id="Page-1" stroke="none" stroke-width="1" fill="none" fill-rule="evenodd">
        <g id="Desktop-Copy-13" transform="translate(-315.000000, -715.000000)" fill="#FF3C58">
            <g id="Group" transform="translate(315.000000, 715.000000)">
                <polygon id="Rectangle-5" points="0 11 79 11 79 14 0 14"></polygon>
                <polygon id="Path-5" points="68.9572571 0 81 12.535282 69.1023525 25 67 22.6962675 76.7711406 12.4450289 67 2.27425607"></polygon>
            </g>
        </g>
    </g>
</svg>