<?xml version="1.0" encoding="UTF-8"?>
<svg width="223px" height="223px" viewBox="0 0 223 223" version="1.1" xmlns="http://www.w3.org/2000/svg" xmlns:xlink="http://www.w3.org/1999/xlink">
    <!-- Generator: Sketch 50.2 (55047) - http://www.bohemiancoding.com/sketch -->
    <title>Oval 3 Copy</title>
    <desc>Created with Sketch.</desc>
    <defs>
        <radialGradient cx="50%" cy="18.8838895%" fx="50%" fy="18.8838895%" r="107.953329%" gradientTransform="translate(0.500000,0.188839),rotate(-90.000000),scale(1.000000,1.004250),translate(-0.500000,-0.188839)" id="radialGradient-1">
            <stop stop-color="#5076FF" offset="0%"></stop>
            <stop stop-color="#3CFFE6" offset="100%"></stop>
        </radialGradient>
    </defs>
    <g id="Page-1" stroke="none" stroke-width="1" fill="none" fill-rule="evenodd">
        <g id="Desktop-Copy-6" transform="translate(-561.000000, -891.000000)" fill="url(#radialGradient-1)">
            <path d="M672.5,1114 C734.07975,1114 784,1064.07975 784,1002.5 C784,940.92025 734.07975,891 672.5,891 C610.92025,891 561,940.92025 561,1002.5 C561,1064.07975 610.92025,1114 672.5,1114 Z" id="Oval-3-Copy"></path>
        </g>
    </g>
</svg>