<?xml version="1.0" encoding="UTF-8"?>
<svg width="1175px" height="7437px" viewBox="0 0 1175 7437" version="1.1" xmlns="http://www.w3.org/2000/svg" xmlns:xlink="http://www.w3.org/1999/xlink">
    <!-- Generator: Sketch 50.2 (55047) - http://www.bohemiancoding.com/sketch -->
    <title>Group 2</title>
    <desc>Created with Sketch.</desc>
    <defs></defs>
    <g id="Page-1" stroke="none" stroke-width="1" fill="none" fill-rule="evenodd" opacity="0.244228078" stroke-linecap="square">
        <g id="Desktop-Copy-11" stroke="#A600FF">
            <g id="Group-2" transform="translate(0.000000, -1.000000)">
                <path d="M0.5,1.70128088 L0.5,7437.63393" id="Line"></path>
                <path d="M107.5,1.70128088 L107.5,7437.63393" id="Line-Copy"></path>
                <path d="M214.5,1.70128088 L214.5,7437.63393" id="Line-Copy-2"></path>
                <path d="M320.5,1.70128088 L320.5,7437.63393" id="Line-Copy-3"></path>
                <path d="M427.5,1.70128088 L427.5,7437.63393" id="Line-Copy-4"></path>
                <path d="M534.5,1.70128088 L534.5,7437.63393" id="Line-Copy-5"></path>
                <path d="M641.5,1.70128088 L641.5,7437.63393" id="Line-Copy-6"></path>
                <path d="M747.5,1.70128088 L747.5,7437.63393" id="Line-Copy-7"></path>
                <path d="M961.5,1.70128088 L961.5,7437.63393" id="Line-Copy-9"></path>
                <path d="M854.5,1.70128088 L854.5,7437.63393" id="Line-Copy-13"></path>
                <path d="M1174.5,1.70128088 L1174.5,7437.63393" id="Line-Copy-10"></path>
                <path d="M1068.5,1.70128088 L1068.5,7437.63393" id="Line-Copy-12"></path>
            </g>
        </g>
    </g>
</svg>